{
    "dracula": {
        "palette": {
            "background": "#282a36",
            "background-alt": "#282a36",
            "background-attention": "#181920",
            "border": "#282a36",
            "current-line": "#44475a",
            "selection": "#44475a",
            "foreground": "#f8f8f2",
            "foreground-alt": "#e0e0e0",
            "foreground-attention": "#ffffff",
            "comment": "#6272a4",
            "cyan": "#8be9fd",
            "green": "#50fa7b",
            "orange": "#ffb86c",
            "pink": "#ff79c6",
            "purple": "#bd93f9",
            "red": "#ff5555",
            "yellow": "#f1fa8c"
        },
        "padding": {
            "top": 5,
            "right": 5,
            "bottom": 5,
            "left": 5
        },
        "spacing": {
            "vertical": 5,
            "horizontal": 5
        }
    },
    "substrata": {
        "palette": {
            "background": "#191C25",
            "background-alt": "#20222D",
            "background-attention": "#272935",
            "border": "#2E313D",
            "current-line": "#3C3F4E",
            "selection": "#5B5F71",
            "foreground": "#B5B4C9",
            "foreground-alt": "#5B5F71",
            "foreground-attention": "#B5B4C9",
            "comment": "#6C6F82",
            "cyan": "#659EA2",
            "green": "#76A065",
            "orange": "#FE9F7C",
            "pink": "#C6AED7",
            "purple": "#A17DAF",
            "red": "#EA5564",
            "yellow": "#D2B45F"
        },
        "padding": {
            "top": 2,
            "right": 3,
            "bottom": 2,
            "left": 3
        },
        "spacing": {
            "vertical": 3,
            "horizontal": 3
        }
    }
}
