{
    "backgrounds": [
        {
            "id": "fab28d3d-09b5-4981-b9a3-e91ccb1c60ca",
            "key": "background/gradient",
            "active": true,
            "display": { "luminosity": 0, "blur": 0 }
        }
    ],
    "widgets": [
        {
            "active": true,
            "display": {
                "position": "middleCentre",
                "fontSize": 36,
                "fontWeight": 300
            },
            "id": "7e3d996b-579b-490d-9a61-7867fcf2a821",
            "key": "widget/search"
        }
    ],
    "data": {
        "47f50618-a112-43a0-98ee-555b6ef81e92": {
            "angle": 118,
            "from": "#fb55d6",
            "to": "#16fce4",
            "type": "linear-gradient"
        },
        "7e3d996b-579b-490d-9a61-7867fcf2a821": {
            "searchEngine": "duckduckgo",
            "suggestionsQuantity": 4
        },
        "a2bdf252-c678-49bc-b252-ffdbcfbcbb61": {
            "by": "official",
            "collections": "",
            "featured": false,
            "search": "abstract",
            "timeout": 0
        },
        "c4ebc429-f139-4101-8e7d-acbb3c6f577d": {
            "hour12": false,
            "mode": "digital",
            "showDate": true,
            "showMinutes": true,
            "showSeconds": false
        },
        "e3667867-8256-4f86-a23f-c79e543e7a99": {
            "columns": 4,
            "linkOpenStyle": false,
            "links": [
                {
                    "icon": "github",
                    "name": "Github",
                    "url": "https://github.com/"
                },
                {
                    "icon": "gitlab",
                    "name": "Gitlab",
                    "url": "https://gitlab.com"
                },
                {
                    "icon": "video",
                    "name": "Invidious",
                    "url": "https://invidious.048596.xyz/"
                },
                {
                    "icon": "youtube",
                    "name": "YouTube",
                    "url": "https://youtube.com"
                },
                {
                    "icon": "inbox",
                    "name": "Gmail",
                    "url": "https://gmail.com"
                },
                {
                    "icon": "lock",
                    "name": "ProtonMail",
                    "url": "https://mail.protonmail.com"
                },
                {
                    "icon": "paperclip",
                    "name": "Cloudflare",
                    "url": "https://dash.cloudflare.com"
                },
                {
                    "icon": "server",
                    "name": "Repacks",
                    "url": "https://fitgirl-repacks.site"
                },
                {
                    "icon": "aperture",
                    "name": "1337x",
                    "url": "https://1337x.to"
                },
                {
                    "icon": "hard-drive",
                    "name": "GoFile",
                    "url": "https://gofile.io/"
                },
                {
                    "icon": "play",
                    "name": "IGG Games",
                    "url": "https://igg-games.com/"
                },
                {
                    "icon": "download",
                    "name": "Ziperto",
                    "url": "https://ziperto.com"
                },
                {
                    "url": "https://alternativeto.net",
                    "name": "Alternativeto",
                    "icon": "align-left"
                },
                {
                    "url": "https://twitter.com/3u41c",
                    "name": "Twitter",
                    "icon": "twitter"
                },
                {
                    "url": "https://www.ultimate-guitar.com/",
                    "name": "Ultimate Guitar",
                    "icon": "music"
                },
                {
                    "url": "https://reddit.com",
                    "name": "Reddit",
                    "icon": "message-square"
                },
                {
                    "url": "https://www.limetorrents.info/",
                    "name": "Lime Torrents",
                    "icon": "paperclip"
                },
                {
                    "url": "https://temp-mail.io/en/",
                    "name": "Temp Mail",
                    "icon": "link"
                },
                {
                    "url": "https://spscc.instructure.com",
                    "name": "SPSCC",
                    "icon": "user"
                }
            ],
            "visible": true
        },
        "e94e16b1-d3b5-4c69-9cbc-d273df2a15a0": {
            "expand": false,
            "nsfw": false,
            "tag": "pattern"
        },
        "f1ea4361-2987-48b3-9a52-2e68979d7ff0": {
            "expand": false,
            "nsfw": false,
            "tag": "pattern"
        },
        "f59422b1-6212-432c-8e25-f39782c14ae7": { "colour": "#3498db" },
        "f5fff3f1-770d-47fb-af6d-a55b03bdba6b": {
            "by": "search",
            "collections": "",
            "featured": false,
            "search": "kitten",
            "timeout": 0
        },
        "50b791e8-4418-4978-b649-758eb217cd55": {
            "expand": false,
            "nsfw": false,
            "tag": "pattern"
        },
        "857ff967-7d4e-4c3c-ba5c-9cc71cfe8ac6": {
            "expand": false,
            "nsfw": false,
            "tag": "pattern"
        },
        "cd38dd50-8e62-4b8b-a471-3ab7a4c4448d": {
            "angle": 0,
            "from": "#000000",
            "to": "#191919",
            "type": "linear-gradient"
        },
        "10a5f7a1-c8f4-4987-a513-50b734a2fd2e": { "colour": "#282a36" },
        "fab28d3d-09b5-4981-b9a3-e91ccb1c60ca": {
            "angle": 40,
            "from": "#282a36",
            "to": "#262833",
            "type": "linear-gradient"
        }
    },
    "timeZone": "America/Los_Angeles",
    "_persist": { "version": -1, "rehydrated": true }
}
